{
    "Product" : [
        {
            "key": 1,
            "name": "coffee",
            "content": "What you always wanted to know about different types of coffee?",
            "img": "https://upload.wikimedia.org/wikipedia/commons/4/45/A_small_cup_of_coffee.JPG"
        },
        {
            "key": 2,
            "name": "Drink",
            "content": "What you always wanted to know about different types of coffee?",
            "img": "https://encrypted-tbn0.gstatic.com/images?q=tbn%3AANd9GcTqtwxT_0zvJshsg6QLIPMRxNOPoYSGDt8mCepHhdv8iVCArrZh&usqp=CAU"
        },
        {
            "key": 3,
            "name": "Food",
            "content": "What you always wanted to know about different types of coffee?",
            "img": "https://i0.wp.com/images-prod.healthline.com/hlcmsresource/images/AN_images/healthy-eating-ingredients-1296x728-header.jpg?w=1155&h=1528"
        },
        {
            "key": 4,
            "name": "Beer",
            "content": "What you always wanted to know about different types of coffee?",
            "img": "https://cdn.cnn.com/cnnnext/dam/assets/200228150530-corona-beer-large-169.jpg"
        }
    ],
    "list": {
        "ListCoffe": [
            {
                "key": 1,
                "name": "Coffe Đen",
                "prices": "15.000",
                "img": "https://upload.wikimedia.org/wikipedia/commons/4/45/A_small_cup_of_coffee.JPG",
                "status": true,
                "sale": true,
                "salenumber": 70
            },
            {
                "key": 2,
                "name": "Coffe Đen SG",
                "prices": "23.000",
                "img": "https://encrypted-tbn0.gstatic.com/images?q=tbn%3AANd9GcTqtwxT_0zvJshsg6QLIPMRxNOPoYSGDt8mCepHhdv8iVCArrZh&usqp=CAU",
                "status": true,
                "sale": true,
                "salenumber": 70
            },
            {
                "key": 3,
                "name": "Coffe Sữa",
                "prices": "17.000",
                "img": "https://i0.wp.com/images-prod.healthline.com/hlcmsresource/images/AN_images/healthy-eating-ingredients-1296x728-header.jpg?w=1155&h=1528",
                "status": false,
                "sale": false
            },
            {
                "key": 4,
                "name": "Coffe Sữa SG",
                "prices": "30.000",
                "img": "https://cdn.cnn.com/cnnnext/dam/assets/200228150530-corona-beer-large-169.jpg",
                "status": true,
                "sale": true,
                "salenumber": 70
            }
        ],
        "ListDrink": [
            {
                "key": 1,
                "name": "Coffe Đen",
                "prices": "15.000",
                "img": "https://upload.wikimedia.org/wikipedia/commons/4/45/A_small_cup_of_coffee.JPG",
                "status": true,
                "sale": true,
                "salenumber": 70
            },
            {
                "key": 2,
                "name": "Coffe Đen SG",
                "prices": "23.000",
                "img": "https://encrypted-tbn0.gstatic.com/images?q=tbn%3AANd9GcTqtwxT_0zvJshsg6QLIPMRxNOPoYSGDt8mCepHhdv8iVCArrZh&usqp=CAU",
                "status": true,
                "sale": true,
                "salenumber": 70
            },
            {
                "key": 3,
                "name": "Coffe Sữa",
                "prices": "17.000",
                "img": "https://i0.wp.com/images-prod.healthline.com/hlcmsresource/images/AN_images/healthy-eating-ingredients-1296x728-header.jpg?w=1155&h=1528",
                "status": false,
                "sale": false
            },
            {
                "key": 4,
                "name": "Coffe Sữa SG",
                "prices": "30.000",
                "img": "https://cdn.cnn.com/cnnnext/dam/assets/200228150530-corona-beer-large-169.jpg",
                "status": true,
                "sale": true,
                "salenumber": 70
            }
        ]

    }
    
}